{
          "item": {
            "main": {
              "itemId": "510",
              "itemDescription": "Snert",
              "preference": "true",
              "itemType": "1RECIPE",
              "status": "3VALIDATE",
              "franchiseOnlyItem": "false",
              "itemNumber": "itemNumber1",
              "itemDescriptionTranslations": {
                "itemDescriptionTranslation": {
                  "language": "language1",
                  "text": "text1"
                }
              },
              "category": "category1",
              "media": {
                "attachment": "attachment1"
              }
            },
            "salesData": {
              "marketingName": "marketingName1",
              "marketingNameTranslations": {
                "marketingNameTranslation": {
                  "language": "language1",
                  "text": "text1"
                }
              },
              "registerKey": "registerKey1"
            },
            "assortments": {
              "assortment": {
                "id": "35",
                "itemId": "510",
                "type": "Assortment",
                "mainCategoryId": "9",
                "mainCategory": "Food",
                "mainCategoryTranslations": {
                  "mainCategoryTranslation": [
                    {
                      "language": "nl",
                      "text": "Voedsel"
                    },
                    {
                      "language": "en",
                      "text": "Food"
                    }
                  ]
                },
                "subCategoryId": "3",
                "subCategory": "Cold",
                "subCategoryTranslations": {
                  "subCategoryTranslation": {
                    "language": "language",
                    "text": "text"
                  }
                },
                "subjectId": "11",
                "subject": "Cake",
                "subjectTranslations": {
                  "subjectTranslation": {
                    "language": "language1",
                    "text": "text2"
                  }
                }
              }
            },
            "ingredientItems": {
              "ingredientItem": [
                {
                  "id": "581"
                },
                {
                  "id": "997"
                },
                {
                  "id": "1060"
                },
                {
                  "id": "1061"
                }
              ]
            },
            "ingredients": {
              "ingredient": {
                "itemIngredientsId": "10",
                "itemIngredientsItemId": "20",
                "itemIngredientsDeclarationId": "30",
                "itemIngredientsDeclaration": "itemIngredientsDeclaration1"
              }
            },
            "itemHACCPs": {
              "itemHACCP": {
                "id": "10",
                "itemId": "20",
                "type": "type1",
                "code": "code2",
                "description": "description1",
                "addition": "addition1"
              }
            },
            "nutrients": {
              "nutrient": {
                "itemNutrientsId": "30",
                "itemNutrientsItemId": "40",
                "itemNutrientsCode": "itemNutrientsCode2",
                "itemNutrientsName": "itemNutrientsName2",
                "itemNutrientsAsSold": "10.0",
                "itemNutrientsValuePerPortion": "20.0"
              }
            },
            "recipeSetLocations": {
              "location": [
                {
                  "id": "5"
                },
                {
                  "id": "6"
                },
                {
                  "id": "8"
                }
              ]
            },
            "allergens": {
              "allergen": {
                "itemAllergensId": "50",
                "itemAllergensItemId": "60",
                "itemAllergensAllergenId": "itemAllergensAllergenId5",
                "itemAllergensNameNl": "itemAllergensNameNl6",
                "itemAllergensNameGb": "itemAllergensNameGb7",
                "itemAllergensPresent": "true"
              }
            },
            "formulas": {
              "formula": {
                "location": "17"
              }
            },
            "pricingAndQuantities": {
              "pricingAndQuantity": {
                "pricingId": "721",
                "itemId": "510",
                "type": "PRODUCTION",
                "amount": "1",
                "unitOfMeasurement": "STK",
                "priceExclVat": "1,0000",
                "priceInclVat": "1,0000",
                "VatType": "NL0",
                "vatAmount": "0,0000",
                "measuredWeightInGrams": "measuredWeightInGrams",
                "pricePerMeasuredGram": "pricePerMeasuredGram",
                "salesPrices": {
                  "id": "20",
                  "itemPricingAndQuantity": "30",
                  "priceCluster": "priceCluster",
                  "countryCode": "countryCode",
                  "priceInclVat": "priceInclVat",
                  "priceExclVat": "priceExclVat",
                  "vatType": "vatType",
                  "vatAmount": "vatAmount",
                  "margin": "0.0",
                  "validFrom": "2001-01-01",
                  "validTo": "2001-01-01"
                },
                "validFrom": "2021-04-15+02:00",
                "validTo": "2021-04-15+02:00",
                "packingType": "packingType1"
              }
            },
            "preparations": {
              "preparation": {
                "preparationId": "58",
                "itemId": "510",
                "preparationType": "1MISENENPLACE",
                "preparationStep": "1",
                "preparationLanguage": "nl",
                "preparationDescription": "preparationDescription",
                "preparationDescriptionTranslations": {
                  "preparationDescriptionTranslation": {
                    "language": "nl",
                    "text": "hallo"
                  }
                },
                "media": {
                  "attachment": "ebx-addon-dama/AssetProvider?assetPath=2E03B554-6D01-473B-B531-7A01D183ABA0&versionId=607DCF65-2F04-44BD-B780-DBC6E351F66C&height=150&width=150&original=true&uuid=23c9dc91-b077-4dc2-8ea2-1e1e3fb0f64d&moduleName=ebx-addon-dama&contentId=607DCF65-2F04-44BD-B780-DBC6E351F66C"
                }
              }
            },
            "statuses": {
              "status": [
                {
                  "statusId": "289",
                  "itemId": "510",
                  "status": "1CONCEPT",
                  "validFrom": "2021-01-25+01:00",
                  "validTo": "2021-01-25+01:00"
                },
                {
                  "statusId": "722",
                  "itemId": "510",
                  "status": "3VALIDATE",
                  "validFrom": "2021-06-29+02:00",
                  "validTo": "9999-12-31+01:00"
                }
              ]
            },
            "itemLocalizedDescriptions": {
              "itemLocalizedDescription": {
                "id": "10",
                "itemId": "20",
                "language": "language2",
                "type": "type2",
                "description": "description2"
              }
            },
            "itemEANs": {
              "itemEAN": {
                "id": "145",
                "type": "CONSUMER",
                "EAN": "ean_value"
              }
            },
            "technical": {
              "orderNo": "5"
            },
            "itemLineage": {
              "id": "510",
              "type": "RECIPE_ITEM",
              "itemLineageNode": {
                "id": "510",
                "type": "RECIPE_ITEM",
                "ingredientNodes": {
                  "itemLineageNode": [
                    {
                      "id": "581",
                      "type": "TECHNICAL_INGREDIENT_ITEM",
                      "proportionedFromNode": {
                        "itemLineageNode": {
                          "id": "497",
                          "type": "VENDOR_ITEM"
                        }
                      }
                    },
                    {
                      "id": "997",
                      "type": "TECHNICAL_INGREDIENT_ITEM"
                    },
                    {
                      "id": "1060",
                      "type": "TECHNICAL_INGREDIENT_ITEM",
                      "proportionedFromNode": {
                        "itemLineageNode": {
                          "id": "1062",
                          "type": "VENDOR_ITEM"
                        }
                      }
                    },
                    {
                      "id": "1061",
                      "type": "TECHNICAL_INGREDIENT_ITEM",
                      "proportionedFromNode": {
                        "itemLineageNode": {
                          "id": "1062",
                          "type": "VENDOR_ITEM"
                        }
                      }
                    }
                  ]
                }
              }
            }
          }
        }
